{

  "basic-attention-token": {
    "text": "BAT",
    "desc": "Basic Attention Token",
    "value": "basic-attention-token",
    "decimal": 18,
    "to_usd": {
      "decimal": 8,
      "contract": "0x8e67A0CFfbbF6A346ce87DFe06daE2dc782b3219"
    },
    "rinkeby": "0xbF7A7169562078c96f0eC1A8aFD6aE50f12e5A99",
    "kovan": "0x482dc9bb08111cb875109b075a40881e48ae02cd",
    "image": "https://cryptologos.cc/logos/basic-attention-token-bat-logo.png"
  },
  "chainlink": {
    "text": "LINK",
    "desc": "Chainlink",
    "value": "chainlink",
    "decimal": 18,
    "to_usd": {
      "decimal": 8,
      "contract": "0x396c5E36DD0a0F5a5D33dae44368D4193f69a1F0"
    },
    "rinkeby": "0x01BE23585060835E02B77ef475b0Cc51aA1e0709",
    "kovan": "0xa36085F69e2889c224210F603D836748e7dC0088",
    "image": "https://cryptologos.cc/logos/chainlink-link-logo.png"
  },
  "uniswap": {
    "text": "UNI",
    "desc": "Uniswap",
    "value": "uniswap",
    "decimal": 18,
    "to_usd": {
      "decimal": 8,
      "contract": "0xDA5904BdBfB4EF12a3955aEcA103F51dc87c7C39"
    },
    "rinkeby": "0x1f9840a85d5af5bf1d1762f925bdaddc4201f984",
    "kovan": "0x1f9840a85d5af5bf1d1762f925bdaddc4201f984",
    "image": "https://cryptologos.cc/logos/uniswap-uni-logo.png"
  }
}